{
  "watch": [
    {
      "path": "/Users/tom/projects/kilobox_build",
      "file": "noise.log",
      "name": "NOISE"
    },
    {
      "path": "/Users/tom/projects/kilobox_build",
      "file": "clump.log",
      "name": "CLUMP"
    }
  ],
  "mongo": {
    "host": "localhost",
    "port": 27017,
    "db": "log"
  }
}